﻿2023-11-08 23:29:54|   9.117.7258.8713|      602544|-R-S|C:\Program Files\InstallMate 9\Stubs80\TsuX64u.dll
2023-11-16 16:47:54|                  |       84093|-R-S|C:\GIT\signz-setupkits\Tarma InstallMate\SIGNZ (SIGNZ 4.2 (x64) oOh! STABLE\oOh! (x64) STABLE\SIGNZ42(x64)-STABLE-Setup.dat
2023-11-16 16:47:54|   9.117.7258.8713|      119296|-R-S|C:\GIT\signz-setupkits\Tarma InstallMate\SIGNZ (SIGNZ 4.2 (x64) oOh! STABLE\oOh! (x64) STABLE\SIGNZ42(x64)-STABLE-SetupX64.dll
2021-01-09 11:17:43|                  |       37364|-R-S|C:\GIT\signz-setupkits\Tarma InstallMate\Source Files\OOH Stable\Signz Logo - Green.ico
2023-11-16 16:47:54|                  |        2114|-R-S|C:\GIT\signz-setupkits\Tarma InstallMate\SIGNZ (SIGNZ 4.2 (x64) oOh! STABLE\oOh! (x64) STABLE\Readme.txt
2023-11-16 16:47:54|           4.2.0.0|       49664|-R-S|C:\GIT\signz-setupkits\Tarma InstallMate\SIGNZ (SIGNZ 4.2 (x64) oOh! STABLE\oOh! (x64) STABLE\_Setup.exe
2021-01-09 11:17:43|                  |       43154|----|C:\GIT\signz-setupkits\Tarma InstallMate\Source Files\OOH Stable\Signz Logo - Yellow.ico
2021-01-09 11:17:43|                  |       37364|----|C:\GIT\signz-setupkits\Tarma InstallMate\Source Files\OOH Stable\Signz Logo - Blue.ico
2021-01-09 11:17:43|                  |       37364|----|C:\GIT\signz-setupkits\Tarma InstallMate\Source Files\OOH Stable\Signz Logo - Green.ico
2021-01-09 11:17:43|                  |       37352|----|C:\GIT\signz-setupkits\Tarma InstallMate\Source Files\OOH Stable\Signz Logo - Orange.ico
2021-01-09 11:17:43|                  |       37343|----|C:\GIT\signz-setupkits\Tarma InstallMate\Source Files\OOH Stable\Signz Logo - Red.ico
2020-01-21 20:59:24|                  |     7585280|----|C:\GIT\signz-setupkits\Tarma InstallMate\Source Files\OOH Stable\SIGNZapi.pdb
2020-01-21 21:00:34|                  |     7218688|----|C:\GIT\signz-setupkits\Tarma InstallMate\Source Files\OOH Stable\SIGNZControls.pdb
2020-01-21 21:02:54|                  |     4197888|----|C:\GIT\signz-setupkits\Tarma InstallMate\Source Files\OOH Stable\SIGNZmain.pdb
2017-11-22 08:43:26|                  |      105984|----|C:\GIT\signz-setupkits\Tarma InstallMate\Source Files\OOH Stable\SIGNZupdtr.pdb
2020-01-21 21:04:10|                  |       50688|----|C:\GIT\signz-setupkits\Tarma InstallMate\Source Files\OOH Stable\SIGNZ4.pdb
2008-08-07 22:31:00|          0.85.5.0|      192512|----|C:\GIT\signz-setupkits\Tarma InstallMate\Source Files\OOH Stable\ICSharpCode.SharpZipLib.dll
2015-06-20 10:26:32|        4.4.0.5611|        9728|----|C:\GIT\signz-setupkits\Tarma InstallMate\Source Files\OOH Stable\ga.exe
2020-01-21 21:00:34|        4.3.5300.0|    15563776|----|C:\GIT\signz-setupkits\Tarma InstallMate\Source Files\OOH Stable\SIGNZControls.dll
2020-01-21 21:02:54|        4.3.5300.0|    10554368|----|C:\GIT\signz-setupkits\Tarma InstallMate\Source Files\OOH Stable\SIGNZmain.exe
2017-11-22 08:43:38|        4.3.2102.0|     7248896|----|C:\GIT\signz-setupkits\Tarma InstallMate\Source Files\OOH Stable\SIGNZupdtr.exe
2020-01-21 20:59:24|        4.3.5300.0|     3724288|----|C:\GIT\signz-setupkits\Tarma InstallMate\Source Files\OOH Stable\SIGNZapi.dll
2020-01-21 21:04:10|        4.3.5300.0|      405504|----|C:\GIT\signz-setupkits\Tarma InstallMate\Source Files\OOH Stable\SIGNZ4.exe
2023-11-16 16:47:21|                  |        4107|----|C:\GIT\signz-setupkits\Tarma InstallMate\Source Files\OOH Stable\SIGNZ.INI
