﻿2020-11-13 00:46:02|       9.97.2.7622|      514800|-R-S|C:\Program Files\InstallMate 9\Stubs80\Tsu32u.dll
2020-12-15 11:05:14|                  |       80371|-R-S|C:\GIT\signz-setupkits\Tarma InstallMate\SIGNZ (SIGNZ 4.2 (x86) BOA STABLE\BOA (x86) Stable\SIGNZ42(x86)SetupBOAstable.dat
2020-12-15 11:05:14|                  |      118784|-R-S|C:\GIT\signz-setupkits\Tarma InstallMate\SIGNZ (SIGNZ 4.2 (x86) BOA STABLE\BOA (x86) Stable\SIGNZ42(x86)SetupBOAstable32.dll
2019-08-28 20:37:01|                  |       37364|-R-S|C:\GIT\signz-setupkits\Tarma InstallMate\Source Files\BOA\Signz Logo - Green.ico
2020-12-15 11:05:14|                  |        2196|-R-S|C:\GIT\signz-setupkits\Tarma InstallMate\SIGNZ (SIGNZ 4.2 (x86) BOA STABLE\BOA (x86) Stable\Readme.txt
2020-11-13 00:44:35|       9.97.2.7622|       26352|-R-S|C:\Program Files\InstallMate 9\Stubs80\Setup.Administrator\Setup32u.exe
2019-08-28 20:37:01|                  |       43154|----|C:\GIT\signz-setupkits\Tarma InstallMate\Source Files\BOA\Signz Logo - Yellow.ico
2019-08-28 20:37:01|                  |       37364|----|C:\GIT\signz-setupkits\Tarma InstallMate\Source Files\BOA\Signz Logo - Blue.ico
2019-08-28 20:37:01|                  |       37364|----|C:\GIT\signz-setupkits\Tarma InstallMate\Source Files\BOA\Signz Logo - Green.ico
2019-08-28 20:37:01|                  |       37352|----|C:\GIT\signz-setupkits\Tarma InstallMate\Source Files\BOA\Signz Logo - Orange.ico
2019-08-28 20:37:01|                  |       37343|----|C:\GIT\signz-setupkits\Tarma InstallMate\Source Files\BOA\Signz Logo - Red.ico
2015-06-16 17:27:58|                  |     7896576|----|C:\GIT\signz-setupkits\Tarma InstallMate\Source Files\BOA\SIGNZControls.pdb
2015-06-16 17:26:56|                  |     7446016|----|C:\GIT\signz-setupkits\Tarma InstallMate\Source Files\BOA\SIGNZapi.pdb
2015-06-16 17:29:36|                  |     3804672|----|C:\GIT\signz-setupkits\Tarma InstallMate\Source Files\BOA\SIGNZmain.pdb
2019-06-04 23:24:58|                  |       67072|----|C:\GIT\signz-setupkits\Tarma InstallMate\Source Files\BOA\SIGNZupdtr.pdb
2015-06-16 17:26:28|                  |       54784|----|C:\GIT\signz-setupkits\Tarma InstallMate\Source Files\BOA\SIGNZ4.pdb
2015-06-16 17:28:24|        4.2.5200.0|    15481976|----|C:\GIT\signz-setupkits\Tarma InstallMate\Source Files\BOA\SIGNZControls.dll
2015-06-16 17:29:56|        4.2.5200.0|     9844344|----|C:\GIT\signz-setupkits\Tarma InstallMate\Source Files\BOA\SIGNZmain.exe
2019-06-04 23:25:34|        4.2.7241.0|     8523776|----|C:\GIT\signz-setupkits\Tarma InstallMate\Source Files\BOA\SIGNZupdtr.exe
2015-06-16 17:27:06|        4.2.5200.0|     3359352|----|C:\GIT\signz-setupkits\Tarma InstallMate\Source Files\BOA\SIGNZapi.dll
2015-06-16 17:26:36|        4.2.5200.0|      414328|----|C:\GIT\signz-setupkits\Tarma InstallMate\Source Files\BOA\SIGNZ4.exe
2008-08-07 22:31:00|          0.85.5.0|      192512|----|C:\GIT\signz-setupkits\Tarma InstallMate\Source Files\BOA\ICSharpCode.SharpZipLib.dll
2015-06-20 10:26:32|        4.4.0.5611|        9728|----|C:\GIT\signz-setupkits\Tarma InstallMate\Source Files\BOA\ga.exe
2020-12-15 10:45:52|                  |        7130|----|C:\GIT\signz-setupkits\Tarma InstallMate\Source Files\BOA STABLE\SIGNZ.ini
